expname = nerf/synthetic/drums
basedir = ./logs
datadir = ./data/nerf_synthetic/drums
dataset_type = blender
 
no_batching = True
chunk=8192
 
use_viewdirs = True
white_bkgd = True
lrate_decay = 500
 
N_samples = 64
N_importance = 128
N_rand = 1024

N_iters = 50002 
i_video=10000000
i_testset=25000
precrop_iters = 500
precrop_frac = 0.5

half_res = False
fewshot = 4
train_scene = [26, 86, 2, 55]
